불러오기와 정리하기
…
[1] "data.frame"

as_tibble() 함수를 이용하여 tibble 객체로 전환한다. 그러면 data.frame 객체가 tibble 객체로 전환된 것을 알 수 있다.

iris_tbl <- iris |> 
  as_tibble() 
class(iris_tbl)

[1] "tbl_df"     "tbl"        "data.frame"

아래와 같이 데이터를 열어보면, data.frame 객체에서는 볼 수 없는 정보가 나타난다.

iris_tbl

# A tibble: 150 × 5
   Sepal.Length Sepal.Width Petal.Length Petal.Width Species
          <dbl>       <dbl>        <dbl>       <dbl> <fct>  
 1          5.1         3.5          1.4         0.2 setosa 
 2          4.9         3            1.4         0.2 setosa 
 3          4.7         3.2          1.3         0.2 setosa 
 4          4.6         3.1          1.5         0.2 setosa 
 5          5           3.6          1.4         0.2 setosa 
 6          5.4         3.9          1.7         0.4 setosa 
 7          4.6         3.4          1.4         0.3 setosa 
 8          5           3.4          1.5         0.2 setosa 
 9          4.4         2.9          1.4         0.2 setosa 
10          4.9         3.1          1.5         0.1 setosa 
# ℹ 140 more rows
…
17번 행을 변수명으로 사용할 경우 많은 문제점이 발생한다.

결측치는 공란이거나 ‘…’ 기호로 표시되어 있다.

첫 번째 워킹시트(Estimates)에는 1950~2023의 데이터가, 두 번째 워킹시트(Medium variant)에는 2024~2100년의 데이터가 수록되어 있다. 나중에 결합해야한다.

우선 엑셀 파일을 그대로 불러와 본다.

read_excel(
  "WPP2024_GEN_F01_DEMOGRAPHIC_INDICATORS_COMPACT.xlsx", 
  sheet = "Estimates" 
  )

# A tibble: 21,995 × 65
   ...1  ...2  ...3  ...4  `United Nations`  ...6  ...7  ...8  ...9  ...10 ...11
   <chr> <chr> <chr> <chr> <chr>             <chr> <chr> <chr> <chr> <chr> <chr>
 1 <NA>  <NA>  <NA>  <NA>  "Population Divi… <NA>  <NA>  <NA>  <NA>  <NA>  <NA> 
 2 <NA>  <NA>  <NA>  <NA>  "Department of E… <NA>  <NA>  <NA>  <NA>  <NA>  <NA> 
 3 <NA>  <NA>  <NA>  <NA>   <NA>             <NA>  <NA>  <NA>  <NA>  <NA>  <NA> 
 4 <NA>  <NA>  <NA>  <NA>  "World Populatio… <NA>  <NA>  <NA>  <NA>  <NA>  <NA> 
 5 <NA>  <NA>  <NA>  <NA>  "File GEN/01/REV… <NA>  <NA>  <NA>  <NA>  <NA>  <NA> 
 6 <NA>  <NA>  <NA>  <NA>  "Estimates, 1950… <NA>  <NA>  <NA>  <NA>  <NA>  <NA> 
 7 <NA>  <NA>  <NA>  <NA>  "POP/DB/WPP/Rev.… <NA>  <NA>  <NA>  <NA>  <NA>  <NA> 
 8 <NA>  <NA>  <NA>  <NA>  "© July 2024 by … <NA>  <NA>  <NA>  <NA>  <NA>  <NA> 
 9 <NA>  <NA>  <NA>  <NA>  "Suggested citat… <NA>  <NA>  <NA>  <NA>  <NA>  <NA> 
10 <NA>  <NA>  <NA>  <NA>   <NA>             <NA>  <NA>  <NA>  <NA>  <NA>  <NA> 
# ℹ 21,985 more rows
# ℹ 54 more variables: ...12 <chr>, ...13 <chr>, ...14 <chr>, ...15 <chr>,
#   ...16 <chr>, ...17 <chr>, ...18 <chr>, ...19 <chr>, ...20 <chr>,
#   ...21 <chr>, ...22 <chr>, ...23 <chr>, ...24 <chr>, ...25 <chr>,
#   ...26 <chr>, ...27 <chr>, ...28 <chr>, ...29 <chr>, ...30 <chr>,
#   ...31 <chr>, ...32 <chr>, ...33 <chr>, ...34 <chr>, ...35 <chr>,
#   ...36 <chr>, ...37 <chr>, ...38 <chr>, ...39 <chr>, ...40 <chr>, …
…
bind_rows() 함수를 이용하여 두 객체를 결합한다.

불필요한 행(type 컬럼이 “Label/Separator”로 되어 있는 경우)을 제거하고, 단위가 1,000으로 설정되어 있는 변수들을 원 변수값으로 되돌린다.

나중에 사용하기 위해, writexl 패키지의 write_xlsx() 함수를 이용하여 엑셀 파일로 저장한다.

library(writexl)
write_xlsx(wpp_2024, "wpp_2024.xlsx")

그런데, 저장된 파일을 read_excel() 함수로 다시 불러 들이면 컬럼 형식에 대한 정보가 사라져 버리는 등의 에러가 발생한다. 이런 점 때문에 다음과 같은 대안이 존재한다. readr 패키지의 write_rds() 함수로 저장하고, 다시 read_rds() 함수로 불러들이면 정확히 동일한 것을 얻을 수 있다. RDS는 R에서만 사용되는 데이터 이진 포맷(binary format)이다.

write_rds(wpp_2024, "wpp_2024.rds")
read_rds("wpp_2024.rds")

# A tibble: 44,847 × 65
   index variant   region_name notes location_code ISO3  ISO2   SDMX type 
   <dbl> <chr>     <chr>       <chr>         <dbl> <chr> <chr> <dbl> <chr>
 1     1 Estimates World       <NA>            900 <NA>  <NA>      1 World
 2     2 Estimates World       <NA>            900 <NA>  <NA>      1 World
 3     3 Estimates World       <NA>            900 <NA>  <NA>      1 World
 4     4 Estimates World       <NA>            900 <NA>  <NA>      1 World
 5     5 Estimates World       <NA>            900 <NA>  <NA>      1 World
 6     6 Estimates World       <NA>            900 <NA>  <NA>      1 World
 7     7 Estimates World       <NA>            900 <NA>  <NA>      1 World
 8     8 Estimates World       <NA>            900 <NA>  <NA>      1 World
 9     9 Estimates World       <NA>            900 <NA>  <NA>      1 World
10    10 Estimates World       <NA>            900 <NA>  <NA>      1 World
# ℹ 44,837 more rows
# ℹ 56 more variables: parent_code <dbl>, year <dbl>, pop_jan_total <dbl>,
#   pop_jul_total <dbl>, pop_jul_total_male <dbl>, pop_jul_total_female <dbl>,
#   pop_den <dbl>, sex_ratio <dbl>, median_age <dbl>, natural_change <dbl>,
#   RNC <dbl>, pop_change <dbl>, PGR <dbl>, doubling_time <dbl>, births <dbl>,
#   births_by_f1519 <dbl>, CBR <dbl>, TFR <dbl>, NRR <dbl>,
#   mean_age_childbearing <dbl>, sex_ratio_birth <dbl>, deaths_total <dbl>, …
…
컬럼의 결합 및 분할: 두 개 이상의 컬럼을 하나의 컬럼으로 결합하거나 한 컬럼을 두 개 이상의 컬럼으로 분할한다.

결측치 처리: 결측치가 포함된 행을 다양한 방식으로 처리한다.

3.1 데이터 구조 변형

여기서는 데이터 늘이기(lengthening data)와 데이터 넓히기(widening data)에 집중한다. 데이터 늘이기는 행을 늘이는 방식으로 데이터 구조를 변형하는 것이고, 데이터 넓히기는 컬럼의 숫자를 늘이는 방식으로 데이터 구조를 변형하는 것이다.

3.1.1 데이터 늘이기

실습을 위해 tidyverse 패키지에 포함되어 있는 billboard 데이터를 사용한다. 이 데이터셋에는 2000년 한해 동안 노래의 주별 순위 정보가 포함되어 있다.

billboard

# A tibble: 317 × 79
   artist     track date.entered   wk1   wk2   wk3   wk4   wk5   wk6   wk7   wk8
   <chr>      <chr> <date>       <dbl> <dbl> <dbl> <dbl> <dbl> <dbl> <dbl> <dbl>
 1 2 Pac      Baby… 2000-02-26      87    82    72    77    87    94    99    NA
 2 2Ge+her    The … 2000-09-02      91    87    92    NA    NA    NA    NA    NA
 3 3 Doors D… Kryp… 2000-04-08      81    70    68    67    66    57    54    53
 4 3 Doors D… Loser 2000-10-21      76    76    72    69    67    65    55    59
 5 504 Boyz   Wobb… 2000-04-15      57    34    25    17    17    31    36    49
 6 98^0       Give… 2000-08-19      51    39    34    26    26    19     2     2
 7 A*Teens    Danc… 2000-07-08      97    97    96    95   100    NA    NA    NA
 8 Aaliyah    I Do… 2000-01-29      84    62    51    41    38    35    35    38
 9 Aaliyah    Try … 2000-03-18      59    53    38    28    21    18    16    14
10 Adams, Yo… Open… 2000-08-26      76    76    74    69    68    67    61    58
# ℹ 307 more rows
# ℹ 68 more variables: wk9 <dbl>, wk10 <dbl>, wk11 <dbl>, wk12 <dbl>,
#   wk13 <dbl>, wk14 <dbl>, wk15 <dbl>, wk16 <dbl>, wk17 <dbl>, wk18 <dbl>,
#   wk19 <dbl>, wk20 <dbl>, wk21 <dbl>, wk22 <dbl>, wk23 <dbl>, wk24 <dbl>,
#   wk25 <dbl>, wk26 <dbl>, wk27 <dbl>, wk28 <dbl>, wk29 <dbl>, wk30 <dbl>,
#   wk31 <dbl>, wk32 <dbl>, wk33 <dbl>, wk34 <dbl>, wk35 <dbl>, wk36 <dbl>,
#   wk37 <dbl>, wk38 <dbl>, wk39 <dbl>, wk40 <dbl>, wk41 <dbl>, wk42 <dbl>, …

관측개체는 개별 노래이며 앞의 세 변수(artist, track, data.entered)는 노래 관련 속성이고, 나머지 76개 변수(wk1~wk76)는 76주간 개별 노래의 순위를 나타낸다. ’몇 번째 주인가’는 변수일 수 없으므로 week라는 변수를 생성하여 개별주가 변수값이 되도록 데이터를 변형할 필요가 있다.

billboard |> 
  pivot_longer(
    cols = starts_with("wk"), 
    names_to = "week", 
    values_to = "rank"
  )

# A tibble: 24,092 × 5
   artist track                   date.entered week   rank
   <chr>  <chr>                   <date>       <chr> <dbl>
 1 2 Pac  Baby Don't Cry (Keep... 2000-02-26   wk1      87
 2 2 Pac  Baby Don't Cry (Keep... 2000-02-26   wk2      82
 3 2 Pac  Baby Don't Cry (Keep... 2000-02-26   wk3      72
 4 2 Pac  Baby Don't Cry (Keep... 2000-02-26   wk4      77
 5 2 Pac  Baby Don't Cry (Keep... 2000-02-26   wk5      87
 6 2 Pac  Baby Don't Cry (Keep... 2000-02-26   wk6      94
 7 2 Pac  Baby Don't Cry (Keep... 2000-02-26   wk7      99
 8 2 Pac  Baby Don't Cry (Keep... 2000-02-26   wk8      NA
 9 2 Pac  Baby Don't Cry (Keep... 2000-02-26   wk9      NA
10 2 Pac  Baby Don't Cry (Keep... 2000-02-26   wk10     NA
# ℹ 24,082 more rows
…
country와 year은 분명한 변수이지만 나머지 56개 변수는 무엇인지 알 수 없다. 그런데 잘 살펴보면, 변수명에 어떤 패턴이 있다는 것을 알 수 있다. 모두 세 부분으로 나뉘어져 있는데, 첫 번째 부분은 진단법(sp, rel, ep)과 관련되어 있고, 두 번째 부분은 성(m, f)과 관련되어 있고, 세 번째 부분은 연령(014, 1524, 2534, 3544, 4554, 5564, 65)과 관련되어 있다. 56개 변수의 셀 값은 모두 케이스(환자수)를 의미한다. 이 지저분한 데이터를 pivot_longer() 함수를 이용해 정돈된 데이터로 만들어 본다.

who2 |> 
  pivot_longer(
    cols = !c(country, year),
    names_to = c("diagnosis", "gender", "age"), 
    names_sep = "_",
    values_to = "count"
  )

# A tibble: 405,440 × 6
   country      year diagnosis gender age   count
   <chr>       <dbl> <chr>     <chr>  <chr> <dbl>
 1 Afghanistan  1980 sp        m      014      NA
 2 Afghanistan  1980 sp        m      1524     NA
 3 Afghanistan  1980 sp        m      2534     NA
 4 Afghanistan  1980 sp        m      3544     NA
 5 Afghanistan  1980 sp        m      4554     NA
 6 Afghanistan  1980 sp        m      5564     NA
 7 Afghanistan  1980 sp        m      65       NA
 8 Afghanistan  1980 sp        f      014      NA
 9 Afghanistan  1980 sp        f      1524     NA
10 Afghanistan  1980 sp        f      2534     NA
# ℹ 405,430 more rows
…
names_to = c(".value", "child")와 names_sep = "_"는 네 개의 변수(dob_child1, dob_child2, name_child1, name_child2)의 이름을 크게 두 부분으로 분할하여 앞 부분(dob와 name)을 새로운 변수로 생성하고, 뒷 부분(child1, child2)는 child라는 변수를 새로 생성하여 그것은 변수값으로 전환한다. 결국 변수명의 일부는 새로운 변수명이 되고, 또 다른 일부는 변수값이 되는 것이다. 이렇게 되면 values_to 아규먼트가 필요없게 된다. 마지막에 있는 values_drop_na 아규먼트도 중요한 역할을 하는데, 두 번째 가정은 한 자녀만을 가지고 있기 때문에 결측값이 포함되어 있는데 그것을 최종 결과에 포함시키지 않는 일을 한다.

3.1.2 데이터 넓히기

실습을 위해 tidyverse 패키지에 포함되어 있는 cms_patient_experience 데이터를 사용한다. 이것은 미국의 Centers of Medicare and Meicaid Services가 제공한 데이터이다.

cms_patient_experience

# A tibble: 500 × 5
   org_pac_id org_nm                           measure_cd measure_title prf_rate
   <chr>      <chr>                            <chr>      <chr>            <dbl>
 1 0446157747 USC CARE MEDICAL GROUP INC       CAHPS_GRP… CAHPS for MI…       63
 2 0446157747 USC CARE MEDICAL GROUP INC       CAHPS_GRP… CAHPS for MI…       87
 3 0446157747 USC CARE MEDICAL GROUP INC       CAHPS_GRP… CAHPS for MI…       86
 4 0446157747 USC CARE MEDICAL GROUP INC       CAHPS_GRP… CAHPS for MI…       57
 5 0446157747 USC CARE MEDICAL GROUP INC       CAHPS_GRP… CAHPS for MI…       85
 6 0446157747 USC CARE MEDICAL GROUP INC       CAHPS_GRP… CAHPS for MI…       24
 7 0446162697 ASSOCIATION OF UNIVERSITY PHYSI… CAHPS_GRP… CAHPS for MI…       59
 8 0446162697 ASSOCIATION OF UNIVERSITY PHYSI… CAHPS_GRP… CAHPS for MI…       85
 9 0446162697 ASSOCIATION OF UNIVERSITY PHYSI… CAHPS_GRP… CAHPS for MI…       83
10 0446162697 ASSOCIATION OF UNIVERSITY PHYSI… CAHPS_GRP… CAHPS for MI…       63
# ℹ 490 more rows
…
의료조직별로 6개씩의 열을 차지하고 있는데, 6개의 열은 measure_cd와 measure_title에 나타나 있는 것과 같은 6개의 서로 다른 조사 항목을 나타낸다. (ex. CAHPS_GRP_1은 환자의 경험 지표중 진료 예약 정보 제공 점수)

마지막의 prf_rate는 조사 항목별 점수이다.

pivot_wider() 함수를 이용하여, 행에는 개별 의료조직이, 열에는 개별 조사 항목이 나타나는 정돈된 데이터를 만들어 본다.

cms_patient_experience |> 
  pivot_wider(
    id_cols = starts_with("org"),
    names_from = measure_cd,
    values_from = prf_rate
  )

# A tibble: 95 × 8
   org_pac_id org_nm CAHPS_GRP_1 CAHPS_GRP_2 CAHPS_GRP_3 CAHPS_GRP_5 CAHPS_GRP_8
   <chr>      <chr>        <dbl>       <dbl>       <dbl>       <dbl>       <dbl>
 1 0446157747 USC C…          63          87          86          57          85
 2 0446162697 ASSOC…          59          85          83          63          88
 3 0547164295 BEAVE…          49          NA          75          44          73
 4 0749333730 CAPE …          67          84          85          65          82
 5 0840104360 ALLIA…          66          87          87          64          87
 6 0840109864 REX H…          73          87          84          67          91
 7 0840513552 SCL H…          58          83          76          58          78
 8 0941545784 GRITM…          46          86          81          54          NA
 9 1052612785 COMMU…          65          84          80          58          87
10 1254237779 OUR L…          61          NA          NA          65          NA
# ℹ 85 more rows
# ℹ 1 more variable: CAHPS_GRP_12 <dbl>
…
한 나라(예: “KOR”)의 연도별 인구 추이 그래프를 그리려고 한다.

x축에는 연도를 y축에는 인구수의 데이터가 필요하다.

연도가 추가 되도라도 새로운 열 변수를 추가하지 않고도 작업할 수 있어야 한다.

wb_long <- world_pop |> 
  pivot_longer(
    cols = !c(country, indicator),
    names_to = "year",
    values_to = "pop"
  )
wb_long

# A tibble: 4,788 × 4
   country indicator   year    pop
   <chr>   <chr>       <chr> <dbl>
 1 ABW     SP.POP.TOTL 2000  89101
 2 ABW     SP.POP.TOTL 2001  90691
 3 ABW     SP.POP.TOTL 2002  91781
 4 ABW     SP.POP.TOTL 2003  92701
 5 ABW     SP.POP.TOTL 2004  93540
 6 ABW     SP.POP.TOTL 2005  94483
 7 ABW     SP.POP.TOTL 2006  95606
 8 ABW     SP.POP.TOTL 2007  96787
 9 ABW     SP.POP.TOTL 2008  97996
10 ABW     SP.POP.TOTL 2009  99212
# ℹ 4,778 more rows

여러나라의 인구를 한 눈에 비교할 수 있는 표가 필요하다. wb_long의 구조를 확인하고, 이를 위한 데이터를 정리하라.

결과는 표에서 연도 간 값을 가로로 나란히 비교하기 쉽도록 구성되어 있어야 한다.

wb_long |>
  pivot_wider(
    id_cols = c(country),
    names_from = year,
    values_from = pop)

# A tibble: 266 × 19
   country `2000` `2001` `2002` `2003` `2004` `2005` `2006` `2007` `2008` `2009`
   <chr>    <dbl>  <dbl>  <dbl>  <dbl>  <dbl>  <dbl>  <dbl>  <dbl>  <dbl>  <dbl>
 1 ABW     8.91e4 9.07e4 9.18e4 9.27e4 9.35e4 9.45e4 9.56e4 9.68e4 9.80e4 9.92e4
 2 AFE     4.02e8 4.12e8 4.23e8 4.34e8 4.45e8 4.57e8 4.70e8 4.82e8 4.96e8 5.09e8
 3 AFG     1.95e7 1.97e7 2.10e7 2.26e7 2.36e7 2.44e7 2.54e7 2.59e7 2.64e7 2.74e7
 4 AFW     2.70e8 2.77e8 2.85e8 2.93e8 3.01e8 3.10e8 3.19e8 3.28e8 3.37e8 3.46e8
 5 AGO     1.64e7 1.69e7 1.75e7 1.81e7 1.88e7 1.95e7 2.02e7 2.09e7 2.17e7 2.25e7
 6 ALB     3.09e6 3.06e6 3.05e6 3.04e6 3.03e6 3.01e6 2.99e6 2.97e6 2.95e6 2.93e6
 7 AND     6.61e4 6.78e4 7.08e4 7.39e4 7.69e4 7.98e4 8.02e4 7.82e4 7.61e4 7.39e4
 8 ARB     2.87e8 2.94e8 3.00e8 3.07e8 3.13e8 3.21e8 3.29e8 3.37e8 3.47e8 3.56e8
 9 ARE     3.28e6 3.45e6 3.63e6 3.81e6 3.99e6 4.28e6 4.90e6 5.87e6 6.99e6 7.99e6
10 ARG     3.71e7 3.75e7 3.79e7 3.83e7 3.87e7 3.91e7 3.95e7 3.99e7 4.03e7 4.07e7
# ℹ 256 more rows
# ℹ 8 more variables: `2010` <dbl>, `2011` <dbl>, `2012` <dbl>, `2013` <dbl>,
#   `2014` <dbl>, `2015` <dbl>, `2016` <dbl>, `2017` <dbl>
…
